{
    "Version": "2012-10-17",
    "Statement": [
        {
            "Sid": "VisualEditor0",
            "Effect": "Allow",
            "Action": [
                "logs:CreateLogStream",
                "cloudwatch:GetMetricStatistics",
                "logs:CreateLogGroup",
                "logs:PutLogEvents"
            ],
            "Resource": "*"
        },
        {
            "Sid": "VisualEditor1",
            "Effect": "Allow",
            "Action": [
                "rds:DescribeDBInstances",
                "rds:DescribeDBClusters",
                "rds:CreateDBInstance",
                "rds:FailoverDBCluster",
                "rds:DeleteDBInstance"
            ],
            "Resource": "arn:aws:rds:us-east-1:*:*"
        }
    ]
}